{
  "npmScope": "undetermined",
  "implicitDependencies": {
    "workspace.json": "*",
    "package.json": {
      "dependencies": "*",
      "devDependencies": "*"
    },
    "nx.json": "*"
  },
  "tasksRunnerOptions": {
    "default": {
      "runner": "@nrwl/workspace/tasks-runners/default",
      "options": {
        "cacheableOperations": ["build", "test", "lint", "package", "prepare"],
        "strictlyOrderedTargets": ["build", "package", "prepare"]
      }
    }
  },
  "projects": {
    "neurocat-front-end": {
      "implicitDependencies": []
    }
  },
  "affected": {
    "defaultBase": "master"
  }
}
