<svg width="138" height="132" xmlns="http://www.w3.org/2000/svg">
    <g fill="#43F1FF" fill-rule="evenodd">
        <path
      d="M73.686 66l-2.899 1.334L70 70.157l.926 2.688L73.686 74l2.6-1.31L78 70.156l-1.295-2.94z"
    />
        <path
      fill-opacity=".64"
      d="M108.843 0l-1.45.667L107 2.079l.463 1.344 1.38.577 1.3-.655.857-1.266-.648-1.47z"
    />
        <path
      fill-opacity=".24"
      d="M135.843 53l-1.45.667-.393 1.412.463 1.344 1.38.577 1.3-.655.857-1.266-.648-1.47z"
    />
        <path
      fill-opacity=".64"
      d="M107.765 53l-2.175 1-.59 2.118.695 2.016 2.07.866 1.95-.983 1.285-1.9-.972-2.204z"
    />
        <path
      fill-opacity=".8"
      d="M128.765 23l-2.175 1-.59 2.118.695 2.016 2.07.866 1.95-.983 1.285-1.9-.972-2.204z"
    />
        <path
      fill-opacity=".48"
      d="M88.843 42l-1.45.667L87 44.079l.463 1.344 1.38.577 1.3-.655.857-1.266-.648-1.47z"
    />
        <path
      fill-opacity=".64"
      d="M78.843 27l-1.45.667L77 29.079l.463 1.344 1.38.577 1.3-.655.857-1.266-.648-1.47z"
    />
        <path
      fill-opacity=".48"
      d="M102.843 27l-1.45.667-.393 1.412.463 1.344 1.38.577 1.3-.655.857-1.266-.648-1.47zM70.922 43l-.725.333-.197.706.232.672.69.289.65-.328.428-.633-.324-.735z"
    />
        <path
      d="M2.765 126L.59 127 0 129.118l.695 2.016 2.07.866 1.95-.983 1.285-1.9-.972-2.204z"
    />
        <path
      fill-opacity=".64"
      d="M24.843 127l-1.45.667-.393 1.412.463 1.344 1.38.577 1.3-.655.857-1.266-.648-1.47z"
    />
        <path
      fill-opacity=".48"
      d="M6.922 114l-.725.333-.197.706.232.672.69.289.65-.328.428-.633-.324-.735z"
    />
    </g>
</svg>
