<svg width="720" height="635" xmlns="http://www.w3.org/2000/svg">
    <defs>
      <linearGradient x1="50%" y1="0%" x2="50%" y2="97.738%" id="a">
        <stop stopColor="#151616" offset="0%" />
        <stop stopColor="#222424" offset="100%" />
      </linearGradient>
    </defs>
    <path
    d="M0 0h720v504.382L279.437 630.304c-53.102 15.177-108.454-15.567-123.631-68.669-.072-.25-.142-.5-.211-.75L0 0z"
    fill="url(#a)"
    fillRule="evenodd"
  />
</svg>
