<svg width="344" height="217" xmlns="http://www.w3.org/2000/svg">
    <defs>
        <linearGradient
      x1="18.74%"
      y1="17.384%"
      x2="96.787%"
      y2="88.669%"
      id="line-1-a"
    >
            <stop stop-color="#5D6AFF" stop-opacity="0" offset="0%" />
            <stop stop-color="#5D6AFF" offset="53.489%" />
            <stop stop-color="#5D6AFF" stop-opacity="0" offset="100%" />
        </linearGradient>
    </defs>
    <path
    d="M340.86 180.664l2.281 3.287c-79.796 55.378-120.994 39.511-120.994-47.035 0-82.777-47.283-92.246-144.735-27.901-32.607 20.428-55.391 21.53-67.544 2.516C-1.882 93.147-3.092 56.053 5.987 0l3.948.64c-8.928 55.125-7.743 91.453 3.303 108.736 10.644 16.653 31.058 15.666 62.01-3.725 99.65-65.797 150.9-55.534 150.9 31.265 0 83.03 37.371 97.424 114.713 43.748z"
    fill="url(#line-1-a)"
    fill-rule="nonzero"
    transform="matrix(-1 0 0 1 343.141 0)"
  />
</svg>
