<svg width="128" height="128" xmlns="http://www.w3.org/2000/svg">
    <defs>
        <linearGradient x1="50%" y1="0%" x2="50%" y2="100%" id="square-6-a">
            <stop stop-color="#4353FF" offset="0%" />
            <stop stop-color="#4353FF" stop-opacity=".32" offset="100%" />
        </linearGradient>
        <linearGradient
      x1="14.98%"
      y1="57.941%"
      x2="95.966%"
      y2="33.366%"
      id="square-6-b"
    >
            <stop stop-color="#43F1FF" stop-opacity=".24" offset="0%" />
            <stop stop-color="#43F1FF" stop-opacity=".16" offset="100%" />
        </linearGradient>
        <linearGradient
      x1="97.033%"
      y1="97.033%"
      x2="0%"
      y2="0%"
      id="square-6-c"
    >
            <stop stop-color="#43F1FF" offset="0%" />
            <stop stop-color="#43F1FF" stop-opacity=".24" offset="100%" />
        </linearGradient>
        <linearGradient
      x1="18.74%"
      y1="17.384%"
      x2="96.787%"
      y2="88.669%"
      id="square-6-d"
    >
            <stop stop-color="#43F1FF" stop-opacity="0" offset="0%" />
            <stop stop-color="#43F1FF" offset="53.489%" />
            <stop stop-color="#43F1FF" stop-opacity="0" offset="100%" />
        </linearGradient>
    </defs>
    <g fill="none" fill-rule="evenodd">
        <path fill="url(#square-6-a)" d="M0 0h128v128H0z" />
        <path
      d="M27.652 128H0V32.762c13.602-4.224 26.559-6.606 36.988-6.606 42.25 0-38.976 13.508-19.488 50.235C25.002 90.529 28.544 109.73 27.652 128z"
      fill="url(#square-6-b)"
    />
        <path fill="url(#square-6-c)" opacity=".32" d="M88 88h40v40H88z" />
        <path
      d="M69 68l39.459 40.249"
      stroke="url(#square-6-d)"
      stroke-width="3"
    />
    </g>
</svg>
