<svg
  width="1920"
  height="1250"
  viewBox="0 0 1920 1250"
  fill="none"
  xmlns="http://www.w3.org/2000/svg"
>
    <path
    d="M273 189.5C165.4 165.1 46.1667 188.667 0 203.5V1077C65.8333 1134.67 268.4 1250 552 1250C906.5 1250 938.5 1012 1179 1012C1360 1012 1360 1077 1559.5 1077C1719.1 1077 1857.5 979.333 1920 930.5V281C1845 281 1730.5 250.5 1600 153C1469.5 55.5 1282.5 0 1146 0C1009.5 0 902 49 741 153C580 257 407.5 220 273 189.5Z"
    fill="#1e1f21"
  />
    </svg>
